{
  "errorCode": 0,
  "errorMsg": "",
  "data": {
    "curPage": 1,
    "offset": 0,
    "over": false,
    "pageCount": 449,
    "size": 20,
    "total": 8964,
    "datas": [
      {
        "apkLink": "",
        "audit": 1,
        "author": "",
        "canEdit": false,
        "chapterId": 502,
        "chapterName": "自助",
        "collect": false,
        "courseId": 13,
        "desc": "",
        "descMd": "",
        "envelopePic": "",
        "fresh": true,
        "id": 14633,
        "link": "https://juejin.im/post/6856550856796897287",
        "niceDate": "50分钟前",
        "niceShareDate": "50分钟前",
        "origin": "",
        "prefix": "",
        "projectLink": "",
        "publishTime": 1596601417000,
        "realSuperChapterId": 493,
        "selfVisible": 0,
        "shareDate": 1596601417000,
        "shareUser": "不怕天黑",
        "superChapterId": 494,
        "superChapterName": "广场Tab",
        "tags": [],
        "title": "RxHttp 2000+star，协程请求，仅需三步",
        "type": 0,
        "userId": 35902,
        "visible": 1,
        "zan": 0
      },
      {
        "apkLink": "",
        "audit": 1,
        "author": "",
        "canEdit": false,
        "chapterId": 308,
        "chapterName": "多线程",
        "collect": false,
        "courseId": 13,
        "desc": "",
        "descMd": "",
        "envelopePic": "",
        "fresh": true,
        "id": 14625,
        "link": "https://juejin.im/post/6856964867811721229",
        "niceDate": "12小时前",
        "niceShareDate": "12小时前",
        "origin": "",
        "prefix": "",
        "projectLink": "",
        "publishTime": 1596558012000,
        "realSuperChapterId": 244,
        "selfVisible": 0,
        "shareDate": 1596557817000,
        "shareUser": "鸿洋",
        "superChapterId": 245,
        "superChapterName": "Java深入",
        "tags": [],
        "title": "Android并发：轻松掌握Volatile与Synchronized",
        "type": 0,
        "userId": 2,
        "visible": 1,
        "zan": 0
      },
      {
        "apkLink": "",
        "audit": 1,
        "author": "",
        "canEdit": false,
        "chapterId": 484,
        "chapterName": "okhttp",
        "collect": false,
        "courseId": 13,
        "desc": "",
        "descMd": "",
        "envelopePic": "",
        "fresh": true,
        "id": 14626,
        "link": "https://juejin.im/post/6856966817844625415",
        "niceDate": "12小时前",
        "niceShareDate": "12小时前",
        "origin": "",
        "prefix": "",
        "projectLink": "",
        "publishTime": 1596558003000,
        "realSuperChapterId": 460,
        "selfVisible": 0,
        "shareDate": 1596557826000,
        "shareUser": "鸿洋",
        "superChapterId": 461,
        "superChapterName": "常见开源库源码解析",
        "tags": [],
        "title": "Android |《看完不忘系列》之okhttp",
        "type": 0,
        "userId": 2,
        "visible": 1,
        "zan": 0
      },
      {
        "apkLink": "",
        "audit": 1,
        "author": "",
        "canEdit": false,
        "chapterId": 142,
        "chapterName": "ConstraintLayout",
        "collect": false,
        "courseId": 13,
        "desc": "",
        "descMd": "",
        "envelopePic": "",
        "fresh": true,
        "id": 14628,
        "link": "https://juejin.im/post/6856743286653386760#comment",
        "niceDate": "12小时前",
        "niceShareDate": "12小时前",
        "origin": "",
        "prefix": "",
        "projectLink": "",
        "publishTime": 1596557988000,
        "realSuperChapterId": 39,
        "selfVisible": 0,
        "shareDate": 1596557919000,
        "shareUser": "鸿洋",
        "superChapterId": 54,
        "superChapterName": "5.+高新技术",
        "tags": [],
        "title": "后羿：我射箭了，快上&mdash;用MotionLayout实现王者荣耀团战",
        "type": 0,
        "userId": 2,
        "visible": 1,
        "zan": 0
      },
      {
        "apkLink": "",
        "audit": 1,
        "author": "",
        "canEdit": false,
        "chapterId": 313,
        "chapterName": "字节码",
        "collect": false,
        "courseId": 13,
        "desc": "",
        "descMd": "",
        "envelopePic": "",
        "fresh": true,
        "id": 14629,
        "link": "https://juejin.im/post/6856928645164990471",
        "niceDate": "12小时前",
        "niceShareDate": "12小时前",
        "origin": "",
        "prefix": "",
        "projectLink": "",
        "publishTime": 1596557978000,
        "realSuperChapterId": 244,
        "selfVisible": 0,
        "shareDate": 1596557932000,
        "shareUser": "鸿洋",
        "superChapterId": 245,
        "superChapterName": "Java深入",
        "tags": [],
        "title": "Java字节码解读",
        "type": 0,
        "userId": 2,
        "visible": 1,
        "zan": 0
      },
      {
        "apkLink": "",
        "audit": 1,
        "author": "",
        "canEdit": false,
        "chapterId": 455,
        "chapterName": "反射",
        "collect": false,
        "courseId": 13,
        "desc": "",
        "descMd": "",
        "envelopePic": "",
        "fresh": true,
        "id": 14630,
        "link": "https://juejin.im/post/6856479045475893261",
        "niceDate": "12小时前",
        "niceShareDate": "12小时前",
        "origin": "",
        "prefix": "",
        "projectLink": "",
        "publishTime": 1596557969000,
        "realSuperChapterId": 244,
        "selfVisible": 0,
        "shareDate": 1596557940000,
        "shareUser": "鸿洋",
        "superChapterId": 245,
        "superChapterName": "Java深入",
        "tags": [],
        "title": "Android coder 需要理解的注解、反射和动态代理",
        "type": 0,
        "userId": 2,
        "visible": 1,
        "zan": 0
      },
      {
        "apkLink": "",
        "audit": 1,
        "author": "",
        "canEdit": false,
        "chapterId": 502,
        "chapterName": "自助",
        "collect": false,
        "courseId": 13,
        "desc": "",
        "descMd": "",
        "envelopePic": "",
        "fresh": true,
        "id": 14621,
        "link": "https://www.jianshu.com/p/70557f0100ff",
        "niceDate": "15小时前",
        "niceShareDate": "15小时前",
        "origin": "",
        "prefix": "",
        "projectLink": "",
        "publishTime": 1596547142000,
        "realSuperChapterId": 493,
        "selfVisible": 0,
        "shareDate": 1596547142000,
        "shareUser": "彭旭锐",
        "superChapterId": 494,
        "superChapterName": "广场Tab",
        "tags": [],
        "title": "Java | Object obj = new Object()占用多少字节？",
        "type": 0,
        "userId": 30587,
        "visible": 1,
        "zan": 0
      },
      {
        "apkLink": "",
        "audit": 1,
        "author": "",
        "canEdit": false,
        "chapterId": 502,
        "chapterName": "自助",
        "collect": false,
        "courseId": 13,
        "desc": "",
        "descMd": "",
        "envelopePic": "",
        "fresh": true,
        "id": 14618,
        "link": "https://juejin.im/post/6856725337737265166",
        "niceDate": "1天前",
        "niceShareDate": "1天前",
        "origin": "",
        "prefix": "",
        "projectLink": "",
        "publishTime": 1596506435000,
        "realSuperChapterId": 493,
        "selfVisible": 0,
        "shareDate": 1596506435000,
        "shareUser": "逮虾户",
        "superChapterId": 494,
        "superChapterName": "广场Tab",
        "tags": [],
        "title": "Android DiffUtil 封装｜深拷贝",
        "type": 0,
        "userId": 63284,
        "visible": 1,
        "zan": 0
      },
      {
        "apkLink": "",
        "audit": 1,
        "author": "",
        "canEdit": false,
        "chapterId": 502,
        "chapterName": "广场",
        "collect": false,
        "courseId": 13,
        "desc": "",
        "descMd": "",
        "envelopePic": "",
        "fresh": true,
        "id": 14608,
        "link": "https://juejin.im/post/6856298836605403150",
        "niceDate": "1天前",
        "niceShareDate": "2天前",
        "origin": "",
        "prefix": "",
        "projectLink": "",
        "publishTime": 1596501730000,
        "realSuperChapterId": 493,
        "selfVisible": 0,
        "shareDate": 1596416688000,
        "shareUser": "xiazunyang",
        "superChapterId": 494,
        "superChapterName": "广场Tab",
        "tags": [],
        "title": "brick框架，助力于快速、简单的搭建MVVM架构",
        "type": 0,
        "userId": 28162,
        "visible": 1,
        "zan": 0
      },
      {
        "apkLink": "",
        "audit": 1,
        "author": "鸿洋",
        "canEdit": false,
        "chapterId": 408,
        "chapterName": "鸿洋",
        "collect": false,
        "courseId": 13,
        "desc": "",
        "descMd": "",
        "envelopePic": "",
        "fresh": false,
        "id": 14622,
        "link": "https://mp.weixin.qq.com/s/lazQtIa139UQmyhCVG5-gQ",
        "niceDate": "1天前",
        "niceShareDate": "13小时前",
        "origin": "",
        "prefix": "",
        "projectLink": "",
        "publishTime": 1596470400000,
        "realSuperChapterId": 407,
        "selfVisible": 0,
        "shareDate": 1596554197000,
        "shareUser": "",
        "superChapterId": 408,
        "superChapterName": "公众号",
        "tags": [
          {
            "name": "公众号",
            "url": "/wxarticle/list/408/1"
          }
        ],
        "title": "Android MotionLayout动画：续写ConstraintLayout新篇章",
        "type": 0,
        "userId": -1,
        "visible": 1,
        "zan": 0
      },
      {
        "apkLink": "",
        "audit": 1,
        "author": "Android群英传",
        "canEdit": false,
        "chapterId": 413,
        "chapterName": "Android群英传",
        "collect": false,
        "courseId": 13,
        "desc": "",
        "descMd": "",
        "envelopePic": "",
        "fresh": false,
        "id": 14623,
        "link": "https://mp.weixin.qq.com/s/bBJlnAojoZoXEOSko6_JcQ",
        "niceDate": "1天前",
        "niceShareDate": "13小时前",
        "origin": "",
        "prefix": "",
        "projectLink": "",
        "publishTime": 1596470400000,
        "realSuperChapterId": 407,
        "selfVisible": 0,
        "shareDate": 1596554217000,
        "shareUser": "",
        "superChapterId": 408,
        "superChapterName": "公众号",
        "tags": [
          {
            "name": "公众号",
            "url": "/wxarticle/list/413/1"
          }
        ],
        "title": "Flutter Dojo设计之道&mdash;&mdash;利用Github打造完善的开源项目",
        "type": 0,
        "userId": -1,
        "visible": 1,
        "zan": 0
      },
      {
        "apkLink": "",
        "audit": 1,
        "author": "鸿洋",
        "canEdit": false,
        "chapterId": 408,
        "chapterName": "鸿洋",
        "collect": false,
        "courseId": 13,
        "desc": "",
        "descMd": "",
        "envelopePic": "",
        "fresh": false,
        "id": 14615,
        "link": "https://mp.weixin.qq.com/s/sKJCG1AjhIRRQL9tQTrLZg",
        "niceDate": "2天前",
        "niceShareDate": "1天前",
        "origin": "",
        "prefix": "",
        "projectLink": "",
        "publishTime": 1596384000000,
        "realSuperChapterId": 407,
        "selfVisible": 0,
        "shareDate": 1596461522000,
        "shareUser": "",
        "superChapterId": 408,
        "superChapterName": "公众号",
        "tags": [
          {
            "name": "公众号",
            "url": "/wxarticle/list/408/1"
          }
        ],
        "title": "直面底层：WindowManager 视图绑定以及体系结构",
        "type": 0,
        "userId": -1,
        "visible": 1,
        "zan": 0
      },
      {
        "apkLink": "",
        "audit": 1,
        "author": "",
        "canEdit": false,
        "chapterId": 230,
        "chapterName": "打包",
        "collect": false,
        "courseId": 13,
        "desc": "",
        "descMd": "",
        "envelopePic": "",
        "fresh": false,
        "id": 14600,
        "link": "https://www.jianshu.com/p/7a91c20c4b0d",
        "niceDate": "2天前",
        "niceShareDate": "2天前",
        "origin": "",
        "prefix": "",
        "projectLink": "",
        "publishTime": 1596380784000,
        "realSuperChapterId": 156,
        "selfVisible": 0,
        "shareDate": 1596354799000,
        "shareUser": "鸿洋",
        "superChapterId": 135,
        "superChapterName": "项目必备",
        "tags": [],
        "title": "Android 动态写入信息到 APK",
        "type": 0,
        "userId": 2,
        "visible": 1,
        "zan": 0
      },
      {
        "apkLink": "",
        "audit": 1,
        "author": "",
        "canEdit": false,
        "chapterId": 502,
        "chapterName": "自助",
        "collect": false,
        "courseId": 13,
        "desc": "",
        "descMd": "",
        "envelopePic": "",
        "fresh": false,
        "id": 14603,
        "link": "https://www.jianshu.com/p/14c969b8add2",
        "niceDate": "2天前",
        "niceShareDate": "2天前",
        "origin": "",
        "prefix": "",
        "projectLink": "",
        "publishTime": 1596375543000,
        "realSuperChapterId": 493,
        "selfVisible": 0,
        "shareDate": 1596375543000,
        "shareUser": "彭旭锐",
        "superChapterId": 494,
        "superChapterName": "广场Tab",
        "tags": [],
        "title": "Java | 请概述一下 Class 文件的结构",
        "type": 0,
        "userId": 30587,
        "visible": 1,
        "zan": 0
      },
      {
        "apkLink": "",
        "audit": 1,
        "author": "",
        "canEdit": false,
        "chapterId": 502,
        "chapterName": "自助",
        "collect": false,
        "courseId": 13,
        "desc": "",
        "descMd": "",
        "envelopePic": "",
        "fresh": false,
        "id": 14598,
        "link": "https://juejin.im/post/6856228495850487821",
        "niceDate": "2天前",
        "niceShareDate": "2天前",
        "origin": "",
        "prefix": "",
        "projectLink": "",
        "publishTime": 1596353178000,
        "realSuperChapterId": 493,
        "selfVisible": 0,
        "shareDate": 1596353178000,
        "shareUser": "Zhu_Jiang",
        "superChapterId": 494,
        "superChapterName": "广场Tab",
        "tags": [],
        "title": "重学Kotlin之泛型的逆变和协变",
        "type": 0,
        "userId": 56200,
        "visible": 1,
        "zan": 0
      },
      {
        "apkLink": "",
        "audit": 1,
        "author": "谷歌开发者",
        "canEdit": false,
        "chapterId": 415,
        "chapterName": "谷歌开发者",
        "collect": false,
        "courseId": 13,
        "desc": "",
        "descMd": "",
        "envelopePic": "",
        "fresh": false,
        "id": 14614,
        "link": "https://mp.weixin.qq.com/s/W0hqiQl2mIpnR92qIhDvFA",
        "niceDate": "2020-08-02 00:00",
        "niceShareDate": "1天前",
        "origin": "",
        "prefix": "",
        "projectLink": "",
        "publishTime": 1596297600000,
        "realSuperChapterId": 407,
        "selfVisible": 0,
        "shareDate": 1596461475000,
        "shareUser": "",
        "superChapterId": 408,
        "superChapterName": "公众号",
        "tags": [
          {
            "name": "公众号",
            "url": "/wxarticle/list/415/1"
          }
        ],
        "title": "在 View 上使用挂起函数",
        "type": 0,
        "userId": -1,
        "visible": 1,
        "zan": 0
      },
      {
        "apkLink": "",
        "audit": 1,
        "author": "鸿洋",
        "canEdit": false,
        "chapterId": 408,
        "chapterName": "鸿洋",
        "collect": false,
        "courseId": 13,
        "desc": "",
        "descMd": "",
        "envelopePic": "",
        "fresh": false,
        "id": 14616,
        "link": "https://mp.weixin.qq.com/s/LGQvYQL0aU5OuavsE3hGgw",
        "niceDate": "2020-08-02 00:00",
        "niceShareDate": "1天前",
        "origin": "",
        "prefix": "",
        "projectLink": "",
        "publishTime": 1596297600000,
        "realSuperChapterId": 407,
        "selfVisible": 0,
        "shareDate": 1596461554000,
        "shareUser": "",
        "superChapterId": 408,
        "superChapterName": "公众号",
        "tags": [
          {
            "name": "公众号",
            "url": "/wxarticle/list/408/1"
          }
        ],
        "title": "你准备好了吗？加油呀！",
        "type": 0,
        "userId": -1,
        "visible": 1,
        "zan": 0
      },
      {
        "apkLink": "",
        "audit": 1,
        "author": "",
        "canEdit": false,
        "chapterId": 502,
        "chapterName": "自助",
        "collect": false,
        "courseId": 13,
        "desc": "",
        "descMd": "",
        "envelopePic": "",
        "fresh": false,
        "id": 14590,
        "link": "https://www.jianshu.com/p/9c039a0bcbb1",
        "niceDate": "2020-08-01 15:37",
        "niceShareDate": "2020-08-01 15:37",
        "origin": "",
        "prefix": "",
        "projectLink": "",
        "publishTime": 1596267479000,
        "realSuperChapterId": 493,
        "selfVisible": 0,
        "shareDate": 1596267479000,
        "shareUser": "折剑游侠",
        "superChapterId": 494,
        "superChapterName": "广场Tab",
        "tags": [],
        "title": "ViewModel原理分析",
        "type": 0,
        "userId": 28244,
        "visible": 1,
        "zan": 0
      },
      {
        "apkLink": "",
        "audit": 1,
        "author": "",
        "canEdit": false,
        "chapterId": 502,
        "chapterName": "自助",
        "collect": false,
        "courseId": 13,
        "desc": "",
        "descMd": "",
        "envelopePic": "",
        "fresh": false,
        "id": 14588,
        "link": "https://juejin.im/post/6855865111354851335",
        "niceDate": "2020-08-01 15:07",
        "niceShareDate": "2020-08-01 15:06",
        "origin": "",
        "prefix": "",
        "projectLink": "",
        "publishTime": 1596265626000,
        "realSuperChapterId": 493,
        "selfVisible": 0,
        "shareDate": 1596265614000,
        "shareUser": "徐公码字",
        "superChapterId": 494,
        "superChapterName": "广场Tab",
        "tags": [],
        "title": "面试官系列 - LeetCode链表知识点&amp;题型总结",
        "type": 0,
        "userId": 5339,
        "visible": 1,
        "zan": 0
      },
      {
        "apkLink": "",
        "audit": 1,
        "author": "",
        "canEdit": false,
        "chapterId": 502,
        "chapterName": "自助",
        "collect": false,
        "courseId": 13,
        "desc": "",
        "descMd": "",
        "envelopePic": "",
        "fresh": false,
        "id": 14586,
        "link": "https://blog.csdn.net/xiao10034263/article/details/107726310",
        "niceDate": "2020-08-01 10:32",
        "niceShareDate": "2020-08-01 10:09",
        "origin": "",
        "prefix": "",
        "projectLink": "",
        "publishTime": 1596249127000,
        "realSuperChapterId": 493,
        "selfVisible": 0,
        "shareDate": 1596247795000,
        "shareUser": "itxiaox",
        "superChapterId": 494,
        "superChapterName": "广场Tab",
        "tags": [],
        "title": "Gradle发布总结&mdash;&mdash;Gradle发布那些事儿",
        "type": 0,
        "userId": 24201,
        "visible": 1,
        "zan": 0
      }
    ]
  }
}